[
  {
    "page": 1,
    "pageSize": 8,
    "totalPages": 5,
    "totalItems": 40,
    "products": [
      {
        "id": 1,
        "name": "Kazus Podatkowy 1(6)2019",
        "price": 98.76,
        "image": {
          "url": "/img/products/kazus.png",
          "alt": "Kazus Podatkowy 1(6)2019"
        }
      },
      {
        "id": 2,
        "name": "Kazus Podatkowy 1(6)2019",
        "price": 98.76,
        "image": {
          "url": "/img/products/kazus.png",
          "alt": "Kazus Podatkowy 1(6)2019"
        }
      },
      {
        "id": 3,
        "name": "Procedury administracyjne i podatkowe 2",
        "price": 98.76,
        "image": {
          "url": "/img/products/procedury.png",
          "alt": "Procedury administracyjne i podatkowe 2"
        }
      },
      {
        "id": 4,
        "name": "Prawo Pomocy Publicznej",
        "price": 98.76,
        "image": {
          "url": "/img/products/prawopomocy.png",
          "alt": "Prawo Pomocy Publicznej"
        }
      },
      {
        "id": 5,
        "name": "Kazus Podatkowy 1(6)2019",
        "price": 98.76,
        "image": {
          "url": "/img/products/kazus.png",
          "alt": "Kazus Podatkowy 1(6)2019"
        }
      },
      {
        "id": 6,
        "name": "Prawo Pomocy Publicznej",
        "price": 98.76,
        "image": {
          "url": "/img/products/prawopomocy.png",
          "alt": "Prawo Pomocy Publicznej"
        }
      },
      {
        "id": 7,
        "name": "Procedury administracyjne i podatkowe 2",
        "price": 98.76,
        "image": {
          "url": "/img/products/procedury.png",
          "alt": "Procedury administracyjne i podatkowe 2"
        }
      },
      {
        "id": 8,
        "name": "Prawo Pomocy Publicznej",
        "price": 98.76,
        "image": {
          "url": "/img/products/prawopomocy.png",
          "alt": "Prawo Pomocy Publicznej"
        }
      }
    ]
  },
  {
    "page": 2,
    "pageSize": 8,
    "totalPages": 5,
    "totalItems": 40,
    "products": [
      {
        "id": 9,
        "name": "Kazus Podatkowy example 9",
        "price": 99.99,
        "image": {
          "url": "/img/products/kazus.png",
          "alt": "Kazus Podatkowy example 9"
        }
      },
      {
        "id": 10,
        "name": "Kazus Podatkowy example 10",
        "price": 99.99,
        "image": {
          "url": "/img/products/kazus.png",
          "alt": "Kazus Podatkowy example 10"
        }
      },
      {
        "id": 11,
        "name": "Kazus Podatkowy example 11",
        "price": 99.99,
        "image": {
          "url": "/img/products/kazus.png",
          "alt": "Kazus Podatkowy example 11"
        }
      },
      {
        "id": 12,
        "name": "Kazus Podatkowy example 12",
        "price": 99.99,
        "image": {
          "url": "/img/products/kazus.png",
          "alt": "Kazus Podatkowy example 12"
        }
      },
      {
        "id": 13,
        "name": "Kazus Podatkowy example 13",
        "price": 99.99,
        "image": {
          "url": "/img/products/kazus.png",
          "alt": "Kazus Podatkowy example 13"
        }
      },
      {
        "id": 14,
        "name": "Kazus Podatkowy example 14",
        "price": 99.99,
        "image": {
          "url": "/img/products/kazus.png",
          "alt": "Kazus Podatkowy example 14"
        }
      },
      {
        "id": 15,
        "name": "Kazus Podatkowy example 15",
        "price": 99.99,
        "image": {
          "url": "/img/products/kazus.png",
          "alt": "Kazus Podatkowy example 15"
        }
      },
      {
        "id": 16,
        "name": "Kazus Podatkowy example 16",
        "price": 99.99,
        "image": {
          "url": "/img/products/kazus.png",
          "alt": "Kazus Podatkowy example 16"
        }
      }
    ]
  },
  {
    "page": 3,
    "pageSize": 8,
    "totalPages": 5,
    "totalItems": 40,
    "products": [
      {
        "id": 17,
        "name": "Kazus Podatkowy example 17",
        "price": 99.99,
        "image": {
          "url": "/img/products/kazus.png",
          "alt": "Kazus Podatkowy example 17"
        }
      },
      {
        "id": 18,
        "name": "Kazus Podatkowy example 18",
        "price": 99.99,
        "image": {
          "url": "/img/products/procedury.png",
          "alt": "Kazus Podatkowy example 18"
        }
      },
      {
        "id": 19,
        "name": "Kazus Podatkowy example 19",
        "price": 99.99,
        "image": {
          "url": "/img/products/prawopomocy.png",
          "alt": "Kazus Podatkowy example 19"
        }
      },
      {
        "id": 20,
        "name": "Kazus Podatkowy example 20",
        "price": 99.99,
        "image": {
          "url": "/img/products/kazus.png",
          "alt": "Kazus Podatkowy example 20"
        }
      },
      {
        "id": 21,
        "name": "Kazus Podatkowy example 21",
        "price": 99.99,
        "image": {
          "url": "/img/products/procedury.png",
          "alt": "Kazus Podatkowy example 21"
        }
      },
      {
        "id": 22,
        "name": "Kazus Podatkowy example 22",
        "price": 99.99,
        "image": {
          "url": "/img/products/prawopomocy.png",
          "alt": "Kazus Podatkowy example 22"
        }
      },
      {
        "id": 23,
        "name": "Kazus Podatkowy example 23",
        "price": 99.99,
        "image": {
          "url": "/img/products/kazus.png",
          "alt": "Kazus Podatkowy example 23"
        }
      },
      {
        "id": 24,
        "name": "Kazus Podatkowy example 24",
        "price": 99.99,
        "image": {
          "url": "/img/products/procedury.png",
          "alt": "Kazus Podatkowy example 24"
        }
      }
    ]
  },
  {
    "page": 4,
    "pageSize": 8,
    "totalPages": 5,
    "totalItems": 40,
    "products": [
      {
        "id": 25,
        "name": "Kazus Podatkowy example 25",
        "price": 99.99,
        "image": {
          "url": "/img/products/kazus.png",
          "alt": "Kazus Podatkowy example 25"
        }
      },
      {
        "id": 26,
        "name": "Kazus Podatkowy example 26",
        "price": 99.99,
        "image": {
          "url": "/img/products/prawopomocy.png",
          "alt": "Kazus Podatkowy example 26"
        }
      },
      {
        "id": 27,
        "name": "Kazus Podatkowy example 27",
        "price": 99.99,
        "image": {
          "url": "/img/products/procedury.png",
          "alt": "Kazus Podatkowy example 27"
        }
      },
      {
        "id": 28,
        "name": "Kazus Podatkowy example 28",
        "price": 99.99,
        "image": {
          "url": "/img/products/kazus.png",
          "alt": "Kazus Podatkowy example 28"
        }
      },
      {
        "id": 29,
        "name": "Kazus Podatkowy example 29",
        "price": 99.99,
        "image": {
          "url": "/img/products/prawopomocy.png",
          "alt": "Kazus Podatkowy example 29"
        }
      },
      {
        "id": 30,
        "name": "Kazus Podatkowy example 30",
        "price": 99.99,
        "image": {
          "url": "/img/products/procedury.png",
          "alt": "Kazus Podatkowy example 30"
        }
      },
      {
        "id": 31,
        "name": "Kazus Podatkowy example 31",
        "price": 99.99,
        "image": {
          "url": "/img/products/kazus.png",
          "alt": "Kazus Podatkowy example 31"
        }
      },
      {
        "id": 32,
        "name": "Kazus Podatkowy example 32",
        "price": 99.99,
        "image": {
          "url": "/img/products/prawopomocy.png",
          "alt": "Kazus Podatkowy example 32"
        }
      }
    ]
  },
  {
    "page": 5,
    "pageSize": 8,
    "totalPages": 5,
    "totalItems": 40,
    "products": [
      {
        "id": 33,
        "name": "Kazus Podatkowy example 33",
        "price": 99.99,
        "image": {
          "url": "/img/products/kazus.png",
          "alt": "Kazus Podatkowy example 33"
        }
      },
      {
        "id": 34,
        "name": "Kazus Podatkowy example 34",
        "price": 99.99,
        "image": {
          "url": "/img/products/procedury.png",
          "alt": "Kazus Podatkowy example 34"
        }
      },
      {
        "id": 35,
        "name": "Kazus Podatkowy example 35",
        "price": 99.99,
        "image": {
          "url": "/img/products/prawopomocy.png",
          "alt": "Kazus Podatkowy example 35"
        }
      },
      {
        "id": 36,
        "name": "Kazus Podatkowy example 36",
        "price": 99.99,
        "image": {
          "url": "/img/products/kazus.png",
          "alt": "Kazus Podatkowy example 36"
        }
      },
      {
        "id": 37,
        "name": "Kazus Podatkowy example 37",
        "price": 99.99,
        "image": {
          "url": "/img/products/procedury.png",
          "alt": "Kazus Podatkowy example 37"
        }
      },
      {
        "id": 38,
        "name": "Kazus Podatkowy example 38",
        "price": 99.99,
        "image": {
          "url": "/img/products/prawopomocy.png",
          "alt": "Kazus Podatkowy example 38"
        }
      },
      {
        "id": 39,
        "name": "Kazus Podatkowy example 39",
        "price": 99.99,
        "image": {
          "url": "/img/products/kazus.png",
          "alt": "Kazus Podatkowy example 39"
        }
      },
      {
        "id": 40,
        "name": "Kazus Podatkowy example 40",
        "price": 99.99,
        "image": {
          "url": "/img/products/procedury.png",
          "alt": "Kazus Podatkowy example 40"
        }
      }
    ]
  }
]
